{
    "name": "Blog",
    "alias": "blog",
    "description": "",
    "keywords": [],
    "version": "1.0.0",
	"active": 1,
    "order": 1,
    "providers": [
        "Modules\\Blog\\Providers\\BlogServiceProvider",
        "Modules\\Blog\\Providers\\RouteServiceProvider"
    ],
    "aliases": {},
    "files": [
        
    ],
    "requires": []
}
